%YAML 1.1
%TAG !u! tag:unity3d.com,2011:
--- !u!74 &7400000
AnimationClip:
  m_ObjectHideFlags: 0
  m_CorrespondingSourceObject: {fileID: 0}
  m_PrefabInstance: {fileID: 0}
  m_PrefabAsset: {fileID: 0}
  m_Name: Armature_ArmatureAction.001
  serializedVersion: 6
  m_Legacy: 0
  m_Compressed: 0
  m_UseHighQualityCurve: 1
  m_RotationCurves:
  - curve:
      serializedVersion: 2
      m_Curve:
      - serializedVersion: 3
        time: 0
        value: {x: -0.017444953, y: -0.01624453, z: -0.20064385, w: 0.97937423}
        inSlope: {x: 0.0081949085, y: -0.0023841262, z: -0.048863053, w: -0.00995779}
        outSlope: {x: 0.0081949085, y: -0.0023841262, z: -0.048863053, w: -0.00995779}
        tangentMode: 0
        weightedMode: 0
        inWeight: {x: 0.33333334, y: 0.33333334, z: 0.33333334, w: 0.33333334}
        outWeight: {x: 0.33333334, y: 0.33333334, z: 0.33333334, w: 0.33333334}
      - serializedVersion: 3
        time: 0.5
        value: {x: 0.012051353, y: -0.024480011, z: -0.37157494, w: 0.92800194}
        inSlope: {x: 0.07517789, y: -0.02010644, z: -0.42303187, w: -0.17063998}
        outSlope: {x: 0.07517789, y: -0.02010644, z: -0.42303187, w: -0.17063998}
        tangentMode: 0
        weightedMode: 0
        inWeight: {x: 0.33333334, y: 0.33333334, z: 0.33333334, w: 0.33333334}
        outWeight: {x: 0.33333334, y: 0.33333334, z: 0.33333334, w: 0.33333334}
      - serializedVersion: 3
        time: 0.7916667
        value: {x: 0.0265089, y: -0.028260846, z: -0.45170164, w: 0.89132726}
        inSlope: {x: 0.0024498166, y: -0.00062741304, z: -0.013389938, w: -0.0068056546}
        outSlope: {x: 0.0024498166, y: -0.00062741304, z: -0.013389938, w: -0.0068056546}
        tangentMode: 0
        weightedMode: 0
        inWeight: {x: 0.33333334, y: 0.33333334, z: 0.33333334, w: 0.33333334}
        outWeight: {x: 0.33333334, y: 0.33333334, z: 0.33333334, w: 0.33333334}
      - serializedVersion: 3
        time: 1
        value: {x: 0.003575171, y: -0.022184744, z: -0.32347465, w: 0.94597}
        inSlope: {x: -0.22515497, y: 0.06189399, z: 1.2909102, w: 0.43574217}
        outSlope: {x: -0.22515497, y: 0.06189399, z: 1.2909102, w: 0.43574217}
        tangentMode: 0
        weightedMode: 0
        inWeight: {x: 0.33333334, y: 0.33333334, z: 0.33333334, w: 0.33333334}
        outWeight: {x: 0.33333334, y: 0.33333334, z: 0.33333334, w: 0.33333334}
      - serializedVersion: 3
        time: 1.1666667
        value: {x: -0.045341037, y: -0.00780039, z: -0.029619869, w: 0.9985019}
        inSlope: {x: -0.33057702, y: 0.104112305, z: 2.084515, w: 0.04479059}
        outSlope: {x: -0.33057702, y: 0.104112305, z: 2.084515, w: 0.04479059}
        tangentMode: 0
        weightedMode: 0
        inWeight: {x: 0.33333334, y: 0.33333334, z: 0.33333334, w: 0.33333334}
        outWeight: {x: 0.33333334, y: 0.33333334, z: 0.33333334, w: 0.33333334}
      - serializedVersion: 3
        time: 1.3333334
        value: {x: -0.095208116, y: 0.009174644, z: 0.30297244, w: 0.9481872}
        inSlope: {x: -0.2365564, y: 0.08751239, z: 1.6775784, w: -0.5527079}
        outSlope: {x: -0.2365564, y: 0.08751239, z: 1.6775784, w: -0.5527079}
        tangentMode: 0
        weightedMode: 0
        inWeight: {x: 0.33333334, y: 0.33333334, z: 0.33333334, w: 0.33333334}
        outWeight: {x: 0.33333334, y: 0.33333334, z: 0.33333334, w: 0.33333334}
      - serializedVersion: 3
        time: 1.5833334
        value: {x: -0.1267104, y: 0.021780614, z: 0.53997916, w: 0.8318008}
        inSlope: {x: -0.030662686, y: 0.011992749, z: 0.23636578, w: -0.15643874}
        outSlope: {x: -0.030662686, y: 0.011992749, z: 0.23636578, w: -0.15643874}
        tangentMode: 0
        weightedMode: 0
        inWeight: {x: 0.33333334, y: 0.33333334, z: 0.33333334, w: 0.33333334}
        outWeight: {x: 0.33333334, y: 0.33333334, z: 0.33333334, w: 0.33333334}
      - serializedVersion: 3
        time: 1.8333334
        value: {x: -0.115061335, y: 0.016869694, z: 0.448774, w: 0.8860464}
        inSlope: {x: 0.11669962, y: -0.04738378, z: -0.8877777, w: 0.4619512}
        outSlope: {x: 0.11669962, y: -0.04738378, z: -0.8877777, w: 0.4619512}
        tangentMode: 0
        weightedMode: 0
        inWeight: {x: 0.33333334, y: 0.33333334, z: 0.33333334, w: 0.33333334}
        outWeight: {x: 0.33333334, y: 0.33333334, z: 0.33333334, w: 0.33333334}
      - serializedVersion: 3
        time: 2.0416667
        value: {x: -0.08001675, y: 0.0037020824, z: 0.19734707, w: 0.97705567}
        inSlope: {x: 0.20523724, y: -0.07192005, z: -1.3982284, w: 0.29949632}
        outSlope: {x: 0.20523724, y: -0.07192005, z: -1.3982284, w: 0.29949632}
        tangentMode: 0
        weightedMode: 0
        inWeight: {x: 0.33333334, y: 0.33333334, z: 0.33333334, w: 0.33333334}
        outWeight: {x: 0.33333334, y: 0.33333334, z: 0.33333334, w: 0.33333334}
      - serializedVersion: 3
        time: 2.2916667
        value: {x: -0.03298499, y: -0.011622128, z: -0.106536716, w: 0.99369353}
        inSlope: {x: 0.13407122, y: -0.040817846, z: -0.82531023, w: -0.081388086}
        outSlope: {x: 0.13407122, y: -0.040817846, z: -0.82531023, w: -0.081388086}
        tangentMode: 0
        weightedMode: 0
        inWeight: {x: 0.33333334, y: 0.33333334, z: 0.33333334, w: 0.33333334}
        outWeight: {x: 0.33333334, y: 0.33333334, z: 0.33333334, w: 0.33333334}
      - serializedVersion: 3
        time: 2.4583335
        value: {x: -0.021059226, y: -0.015187225, z: -0.17901094, w: 0.9835044}
        inSlope: {x: 0.01955206, y: -0.0057535507, z: -0.117532745, w: -0.02075239}
        outSlope: {x: 0.01955206, y: -0.0057535507, z: -0.117532745, w: -0.02075239}
        tangentMode: 0
        weightedMode: 0
        inWeight: {x: 0.33333334, y: 0.33333334, z: 0.33333334, w: 0.33333334}
        outWeight: {x: 0.33333334, y: 0.33333334, z: 0.33333334, w: 0.33333334}
      m_PreInfinity: 2
      m_PostInfinity: 2
      m_RotationOrder: 4
    path: Armature/Bone/Bone.001/Bone.003
  - curve:
      serializedVersion: 2
      m_Curve:
      - serializedVersion: 3
        time: 0
        value: {x: -0.07675365, y: 0.0014243125, z: 0.5367645, w: 0.84023255}
        inSlope: {x: 0.018231153, y: -0.0005855486, z: -0.11964798, w: 0.07758808}
        outSlope: {x: 0.018231153, y: -0.0005855486, z: -0.11964798, w: 0.07758808}
        tangentMode: 0
        weightedMode: 0
        inWeight: {x: 0.33333334, y: 0.33333334, z: 0.33333334, w: 0.33333334}
        outWeight: {x: 0.33333334, y: 0.33333334, z: 0.33333334, w: 0.33333334}
      - serializedVersion: 3
        time: 0.16666667
        value: {x: -0.065291785, y: 0.0010600715, z: 0.46142173, w: 0.88477445}
        inSlope: {x: 0.13351226, y: -0.0041934485, z: -0.8791933, w: 0.4633333}
        outSlope: {x: 0.13351226, y: -0.0041934485, z: -0.8791933, w: 0.4633333}
        tangentMode: 0
        weightedMode: 0
        inWeight: {x: 0.33333334, y: 0.33333334, z: 0.33333334, w: 0.33333334}
        outWeight: {x: 0.33333334, y: 0.33333334, z: 0.33333334, w: 0.33333334}
      - serializedVersion: 3
        time: 0.375
        value: {x: -0.023585686, y: -0.00020781471, z: 0.18544765, w: 0.98237103}
        inSlope: {x: 0.24504495, y: -0.007216844, z: -1.628881, w: 0.31241798}
        outSlope: {x: 0.24504495, y: -0.007216844, z: -1.628881, w: 0.31241798}
        tangentMode: 0
        weightedMode: 0
        inWeight: {x: 0.33333334, y: 0.33333334, z: 0.33333334, w: 0.33333334}
        outWeight: {x: 0.33333334, y: 0.33333334, z: 0.33333334, w: 0.33333334}
      - serializedVersion: 3
        time: 0.5833334
        value: {x: 0.023730928, y: -0.0015553972, z: -0.13053818, w: 0.991158}
        inSlope: {x: 0.176117, y: -0.0048485855, z: -1.181446, w: -0.15499526}
        outSlope: {x: 0.176117, y: -0.0048485855, z: -1.181446, w: -0.15499526}
        tangentMode: 0
        weightedMode: 0
        inWeight: {x: 0.33333334, y: 0.33333334, z: 0.33333334, w: 0.33333334}
        outWeight: {x: 0.33333334, y: 0.33333334, z: 0.33333334, w: 0.33333334}
      - serializedVersion: 3
        time: 0.7916667
        value: {x: 0.043115802, y: -0.0020804342, z: -0.26085192, w: 0.9644133}
        inSlope: {x: 0.005698887, y: -0.00015209237, z: -0.038382396, w: -0.010457033}
        outSlope: {x: 0.005698887, y: -0.00015209237, z: -0.038382396, w: -0.010457033}
        tangentMode: 0
        weightedMode: 0
        inWeight: {x: 0.33333334, y: 0.33333334, z: 0.33333334, w: 0.33333334}
        outWeight: {x: 0.33333334, y: 0.33333334, z: 0.33333334, w: 0.33333334}
      - serializedVersion: 3
        time: 1.2916667
        value: {x: 0.0031144153, y: -0.0009795107, z: 0.0074991, w: 0.99996656}
        inSlope: {x: -0.1269551, y: 0.0036001243, z: 0.8483147, w: -0.0061397743}
        outSlope: {x: -0.1269551, y: 0.0036001243, z: 0.8483147, w: -0.0061397743}
        tangentMode: 0
        weightedMode: 0
        inWeight: {x: 0.33333334, y: 0.33333334, z: 0.33333334, w: 0.33333334}
        outWeight: {x: 0.33333334, y: 0.33333334, z: 0.33333334, w: 0.33333334}
      - serializedVersion: 3
        time: 1.75
        value: {x: -0.046200827, y: 0.00046943457, z: 0.33541995, w: 0.940935}
        inSlope: {x: -0.07081905, y: 0.0021568618, z: 0.4684984, w: -0.16996114}
        outSlope: {x: -0.07081905, y: 0.0021568618, z: 0.4684984, w: -0.16996114}
        tangentMode: 0
        weightedMode: 0
        inWeight: {x: 0.33333334, y: 0.33333334, z: 0.33333334, w: 0.33333334}
        outWeight: {x: 0.33333334, y: 0.33333334, z: 0.33333334, w: 0.33333334}
      - serializedVersion: 3
        time: 2.3333335
        value: {x: -0.065523975, y: 0.0010673349, z: 0.46295044, w: 0.8839584}
        inSlope: {x: -0.0063586263, y: 0.00019983164, z: 0.041863576, w: -0.02237464}
        outSlope: {x: -0.0063586263, y: 0.00019983164, z: 0.041863576, w: -0.02237464}
        tangentMode: 0
        weightedMode: 0
        inWeight: {x: 0.33333334, y: 0.33333334, z: 0.33333334, w: 0.33333334}
        outWeight: {x: 0.33333334, y: 0.33333334, z: 0.33333334, w: 0.33333334}
      - serializedVersion: 3
        time: 2.4583335
        value: {x: -0.06578959, y: 0.0010952158, z: 0.465391, w: 0.8826561}
        inSlope: {x: -0.000015735597, y: -0.0009240416, z: 0.012398935, w: -0.006531703}
        outSlope: {x: -0.000015735597, y: -0.0009240416, z: 0.012398935, w: -0.006531703}
        tangentMode: 0
        weightedMode: 0
        inWeight: {x: 0.33333334, y: 0.33333334, z: 0.33333334, w: 0.33333334}
        outWeight: {x: 0.33333334, y: 0.33333334, z: 0.33333334, w: 0.33333334}
      m_PreInfinity: 2
      m_PostInfinity: 2
      m_RotationOrder: 4
    path: Armature/Bone/Bone.001/Bone.003/Bone.004
  - curve:
      serializedVersion: 2
      m_Curve:
      - serializedVersion: 3
        time: 0
        value: {x: -0.018380381, y: -0.0018069014, z: 0.14416009, w: 0.989382}
        inSlope: {x: 0.0132189095, y: -0.0010480089, z: -0.09087396, w: 0.013303757}
        outSlope: {x: 0.0132189095, y: -0.0010480089, z: -0.09087396, w: 0.013303757}
        tangentMode: 0
        weightedMode: 0
        inWeight: {x: 0.33333334, y: 0.33333334, z: 0.33333334, w: 0.33333334}
        outWeight: {x: 0.33333334, y: 0.33333334, z: 0.33333334, w: 0.33333334}
      - serializedVersion: 3
        time: 0.2916667
        value: {x: 0.0034851176, y: -0.0035036113, z: -0.0063555273, w: 0.99996763}
        inSlope: {x: 0.12815432, y: -0.009720196, z: -0.8833991, w: -0.0072090677}
        outSlope: {x: 0.12815432, y: -0.009720196, z: -0.8833991, w: -0.0072090677}
        tangentMode: 0
        weightedMode: 0
        inWeight: {x: 0.33333334, y: 0.33333334, z: 0.33333334, w: 0.33333334}
        outWeight: {x: 0.33333334, y: 0.33333334, z: 0.33333334, w: 0.33333334}
      - serializedVersion: 3
        time: 0.5416667
        value: {x: 0.036581885, y: -0.0059270784, z: -0.23497336, w: 0.9712951}
        inSlope: {x: 0.114197135, y: -0.008053642, z: -0.7905054, w: -0.1941475}
        outSlope: {x: 0.114197135, y: -0.008053642, z: -0.7905054, w: -0.1941475}
        tangentMode: 0
        weightedMode: 0
        inWeight: {x: 0.33333334, y: 0.33333334, z: 0.33333334, w: 0.33333334}
        outWeight: {x: 0.33333334, y: 0.33333334, z: 0.33333334, w: 0.33333334}
      - serializedVersion: 3
        time: 0.8333334
        value: {x: 0.05182363, y: -0.0069805104, z: -0.3405981, w: 0.9387537}
        inSlope: {x: -0.031468946, y: 0.0021342854, z: 0.21829975, w: 0.07977109}
        outSlope: {x: -0.031468946, y: 0.0021342854, z: 0.21829975, w: 0.07977109}
        tangentMode: 0
        weightedMode: 0
        inWeight: {x: 0.33333334, y: 0.33333334, z: 0.33333334, w: 0.33333334}
        outWeight: {x: 0.33333334, y: 0.33333334, z: 0.33333334, w: 0.33333334}
      - serializedVersion: 3
        time: 1.1666667
        value: {x: 0.007119567, y: -0.0037783482, z: -0.031413686, w: 0.999474}
        inSlope: {x: -0.20645066, y: 0.015550517, z: 1.4237062, w: 0.045028843}
        outSlope: {x: -0.20645066, y: 0.015550517, z: 1.4237062, w: 0.045028843}
        tangentMode: 0
        weightedMode: 0
        inWeight: {x: 0.33333334, y: 0.33333334, z: 0.33333334, w: 0.33333334}
        outWeight: {x: 0.33333334, y: 0.33333334, z: 0.33333334, w: 0.33333334}
      - serializedVersion: 3
        time: 1.375
        value: {x: -0.034037944, y: -0.0005446724, z: 0.25168434, w: 0.9672105}
        inSlope: {x: -0.16307929, y: 0.013348914, z: 1.1188006, w: -0.29337773}
        outSlope: {x: -0.16307929, y: 0.013348914, z: 1.1188006, w: -0.29337773}
        tangentMode: 0
        weightedMode: 0
        inWeight: {x: 0.33333334, y: 0.33333334, z: 0.33333334, w: 0.33333334}
        outWeight: {x: 0.33333334, y: 0.33333334, z: 0.33333334, w: 0.33333334}
      - serializedVersion: 3
        time: 1.625
        value: {x: -0.055668533, y: 0.0012693332, z: 0.3998437, w: 0.9148904}
        inSlope: {x: -0.006342048, y: 0.0005444068, z: 0.043372456, w: -0.01919964}
        outSlope: {x: -0.006342048, y: 0.0005444068, z: 0.043372456, w: -0.01919964}
        tangentMode: 0
        weightedMode: 0
        inWeight: {x: 0.33333334, y: 0.33333334, z: 0.33333334, w: 0.33333334}
        outWeight: {x: 0.33333334, y: 0.33333334, z: 0.33333334, w: 0.33333334}
      - serializedVersion: 3
        time: 2.125
        value: {x: -0.051135663, y: 0.0008819798, z: 0.36883512, w: 0.92808676}
        inSlope: {x: 0.011508431, y: -0.0009783668, z: -0.07875474, w: 0.03194121}
        outSlope: {x: 0.011508431, y: -0.0009783668, z: -0.07875474, w: 0.03194121}
        tangentMode: 0
        weightedMode: 0
        inWeight: {x: 0.33333334, y: 0.33333334, z: 0.33333334, w: 0.33333334}
        outWeight: {x: 0.33333334, y: 0.33333334, z: 0.33333334, w: 0.33333334}
      - serializedVersion: 3
        time: 2.4583335
        value: {x: -0.04882068, y: 0.00065221783, z: 0.35307792, w: 0.9343191}
        inSlope: {x: 0.00031202973, y: -0.0008295596, z: -0.000032901702, w: 0.000028610175}
        outSlope: {x: 0.00031202973, y: -0.0008295596, z: -0.000032901702, w: 0.000028610175}
        tangentMode: 0
        weightedMode: 0
        inWeight: {x: 0.33333334, y: 0.33333334, z: 0.33333334, w: 0.33333334}
        outWeight: {x: 0.33333334, y: 0.33333334, z: 0.33333334, w: 0.33333334}
      m_PreInfinity: 2
      m_PostInfinity: 2
      m_RotationOrder: 4
    path: Armature/Bone/Bone.001/Bone.003/Bone.004/Bone.005
  - curve:
      serializedVersion: 2
      m_Curve:
      - serializedVersion: 3
        time: 0
        value: {x: -0.04519374, y: 0.017881889, z: 0.19144225, w: 0.9802998}
        inSlope: {x: 0.008936226, y: -0.00057399273, z: 0.054849386, w: -0.010356903}
        outSlope: {x: 0.008936226, y: -0.00057399273, z: 0.054849386, w: -0.010356903}
        tangentMode: 0
        weightedMode: 0
        inWeight: {x: 0.33333334, y: 0.33333334, z: 0.33333334, w: 0.33333334}
        outWeight: {x: 0.33333334, y: 0.33333334, z: 0.33333334, w: 0.33333334}
      - serializedVersion: 3
        time: 0.45833334
        value: {x: -0.01659465, y: 0.018798584, z: 0.3631204, w: 0.93140477}
        inSlope: {x: 0.08661179, y: 0.0019531404, z: 0.49746227, w: -0.1922379}
        outSlope: {x: 0.08661179, y: 0.0019531404, z: 0.49746227, w: -0.1922379}
        tangentMode: 0
        weightedMode: 0
        inWeight: {x: 0.33333334, y: 0.33333334, z: 0.33333334, w: 0.33333334}
        outWeight: {x: 0.33333334, y: 0.33333334, z: 0.33333334, w: 0.33333334}
      - serializedVersion: 3
        time: 0.7916667
        value: {x: 0.0030232123, y: 0.019097893, z: 0.4723755, w: 0.8811853}
        inSlope: {x: 0.0036829733, y: 0.000031515938, z: 0.019922726, w: -0.010578627}
        outSlope: {x: 0.0036829733, y: 0.000031515938, z: 0.019922726, w: -0.010578627}
        tangentMode: 0
        weightedMode: 0
        inWeight: {x: 0.33333334, y: 0.33333334, z: 0.33333334, w: 0.33333334}
        outWeight: {x: 0.33333334, y: 0.33333334, z: 0.33333334, w: 0.33333334}
      - serializedVersion: 3
        time: 1
        value: {x: -0.020105038, y: 0.01871496, z: 0.34285158, w: 0.938988}
        inSlope: {x: -0.22630009, y: -0.005844171, z: -1.3174856, w: 0.4677148}
        outSlope: {x: -0.22630009, y: -0.005844171, z: -1.3174856, w: 0.4677148}
        tangentMode: 0
        weightedMode: 0
        inWeight: {x: 0.33333334, y: 0.33333334, z: 0.33333334, w: 0.33333334}
        outWeight: {x: 0.33333334, y: 0.33333334, z: 0.33333334, w: 0.33333334}
      - serializedVersion: 3
        time: 1.1666667
        value: {x: -0.068454154, y: 0.0165621, z: 0.03974902, w: 0.99672455}
        inSlope: {x: -0.3192901, y: -0.021068979, z: -2.165474, w: 0.06158835}
        outSlope: {x: -0.3192901, y: -0.021068979, z: -2.165474, w: 0.06158835}
        tangentMode: 0
        weightedMode: 0
        inWeight: {x: 0.33333334, y: 0.33333334, z: 0.33333334, w: 0.33333334}
        outWeight: {x: 0.33333334, y: 0.33333334, z: 0.33333334, w: 0.33333334}
      - serializedVersion: 3
        time: 1.2916667
        value: {x: -0.105274685, y: 0.013359264, z: -0.22846039, w: 0.96775234}
        inSlope: {x: -0.2484914, y: -0.027740275, z: -1.9565266, w: -0.48132122}
        outSlope: {x: -0.2484914, y: -0.027740275, z: -1.9565266, w: -0.48132122}
        tangentMode: 0
        weightedMode: 0
        inWeight: {x: 0.33333334, y: 0.33333334, z: 0.33333334, w: 0.33333334}
        outWeight: {x: 0.33333334, y: 0.33333334, z: 0.33333334, w: 0.33333334}
      - serializedVersion: 3
        time: 1.5416667
        value: {x: -0.13965748, y: 0.008037895, z: -0.5340868, w: 0.83377606}
        inSlope: {x: -0.04619565, y: -0.009769937, z: -0.475071, w: -0.3081019}
        outSlope: {x: -0.04619565, y: -0.009769937, z: -0.475071, w: -0.3081019}
        tangentMode: 0
        weightedMode: 0
        inWeight: {x: 0.33333334, y: 0.33333334, z: 0.33333334, w: 0.33333334}
        outWeight: {x: 0.33333334, y: 0.33333334, z: 0.33333334, w: 0.33333334}
      - serializedVersion: 3
        time: 1.75
        value: {x: -0.13805322, y: 0.008423334, z: -0.51707274, w: 0.84469295}
        inSlope: {x: 0.056827385, y: 0.011833306, z: 0.5763713, w: 0.35859108}
        outSlope: {x: 0.056827385, y: 0.011833306, z: 0.5763713, w: 0.35859108}
        tangentMode: 0
        weightedMode: 0
        inWeight: {x: 0.33333334, y: 0.33333334, z: 0.33333334, w: 0.33333334}
        outWeight: {x: 0.33333334, y: 0.33333334, z: 0.33333334, w: 0.33333334}
      - serializedVersion: 3
        time: 2
        value: {x: -0.10809572, y: 0.0130354725, z: -0.2508842, w: 0.9618745}
        inSlope: {x: 0.17925802, y: 0.02098632, z: 1.4347198, w: 0.39270747}
        outSlope: {x: 0.17925802, y: 0.02098632, z: 1.4347198, w: 0.39270747}
        tangentMode: 0
        weightedMode: 0
        inWeight: {x: 0.33333334, y: 0.33333334, z: 0.33333334, w: 0.33333334}
        outWeight: {x: 0.33333334, y: 0.33333334, z: 0.33333334, w: 0.33333334}
      - serializedVersion: 3
        time: 2.2083335
        value: {x: -0.06796201, y: 0.016594356, z: 0.043081388, w: 0.99661916}
        inSlope: {x: 0.17627504, y: 0.0115856975, z: 1.194423, w: -0.036154147}
        outSlope: {x: 0.17627504, y: 0.0115856975, z: 1.194423, w: -0.036154147}
        tangentMode: 0
        weightedMode: 0
        inWeight: {x: 0.33333334, y: 0.33333334, z: 0.33333334, w: 0.33333334}
        outWeight: {x: 0.33333334, y: 0.33333334, z: 0.33333334, w: 0.33333334}
      - serializedVersion: 3
        time: 2.4166667
        value: {x: -0.04387894, y: 0.017899584, z: 0.19962716, w: 0.9787253}
        inSlope: {x: 0.037736863, y: 0.0016744104, z: 0.23643324, w: -0.045335684}
        outSlope: {x: 0.037736863, y: 0.0016744104, z: 0.23643324, w: -0.045335684}
        tangentMode: 0
        weightedMode: 0
        inWeight: {x: 0.33333334, y: 0.33333334, z: 0.33333334, w: 0.33333334}
        outWeight: {x: 0.33333334, y: 0.33333334, z: 0.33333334, w: 0.33333334}
      - serializedVersion: 3
        time: 2.4583335
        value: {x: -0.04306798, y: 0.017934784, z: 0.20468934, w: 0.9777146}
        inSlope: {x: 0.019462965, y: 0.0008448048, z: 0.121492036, w: -0.024257137}
        outSlope: {x: 0.019462965, y: 0.0008448048, z: 0.121492036, w: -0.024257137}
        tangentMode: 0
        weightedMode: 0
        inWeight: {x: 0.33333334, y: 0.33333334, z: 0.33333334, w: 0.33333334}
        outWeight: {x: 0.33333334, y: 0.33333334, z: 0.33333334, w: 0.33333334}
      m_PreInfinity: 2
      m_PostInfinity: 2
      m_RotationOrder: 4
    path: Armature/Bone/Bone.002/Bone.006
  - curve:
      serializedVersion: 2
      m_Curve:
      - serializedVersion: 3
        time: 0
        value: {x: -0.043431234, y: 0.0068980027, z: -0.5082453, w: 0.86008894}
        inSlope: {x: 0.018037409, y: -0.004380483, z: 0.113591194, w: 0.06763744}
        outSlope: {x: 0.018037409, y: -0.004380483, z: 0.113591194, w: 0.06763744}
        tangentMode: 0
        weightedMode: 0
        inWeight: {x: 0.33333334, y: 0.33333334, z: 0.33333334, w: 0.33333334}
        outWeight: {x: 0.33333334, y: 0.33333334, z: 0.33333334, w: 0.33333334}
      - serializedVersion: 3
        time: 0.20833334
        value: {x: -0.0264202, y: 0.0027935975, z: -0.3994007, w: 0.91639143}
        inSlope: {x: 0.15333967, y: -0.036739584, z: 0.9977389, w: 0.43517736}
        outSlope: {x: 0.15333967, y: -0.036739584, z: 0.9977389, w: 0.43517736}
        tangentMode: 0
        weightedMode: 0
        inWeight: {x: 0.33333334, y: 0.33333334, z: 0.33333334, w: 0.33333334}
        outWeight: {x: 0.33333334, y: 0.33333334, z: 0.33333334, w: 0.33333334}
      - serializedVersion: 3
        time: 0.4166667
        value: {x: 0.014531012, y: -0.006873959, z: -0.123667866, w: 0.99219346}
        inSlope: {x: 0.21287584, y: -0.049498156, z: 1.4819983, w: 0.18197963}
        outSlope: {x: 0.21287584, y: -0.049498156, z: 1.4819983, w: 0.18197963}
        tangentMode: 0
        weightedMode: 0
        inWeight: {x: 0.33333334, y: 0.33333334, z: 0.33333334, w: 0.33333334}
        outWeight: {x: 0.33333334, y: 0.33333334, z: 0.33333334, w: 0.33333334}
      - serializedVersion: 3
        time: 0.75
        value: {x: 0.06137672, y: -0.017560102, z: 0.21574439, w: 0.97436076}
        inSlope: {x: 0.03317886, y: -0.007412557, z: 0.2504069, w: -0.056280646}
        outSlope: {x: 0.03317886, y: -0.007412557, z: 0.2504069, w: -0.056280646}
        tangentMode: 0
        weightedMode: 0
        inWeight: {x: 0.33333334, y: 0.33333334, z: 0.33333334, w: 0.33333334}
        outWeight: {x: 0.33333334, y: 0.33333334, z: 0.33333334, w: 0.33333334}
      - serializedVersion: 3
        time: 1.0833334
        value: {x: 0.048386447, y: -0.014640791, z: 0.118797265, w: 0.9916308}
        inSlope: {x: -0.08598294, y: 0.01944676, z: -0.63372463, w: 0.07958229}
        outSlope: {x: -0.08598294, y: 0.01944676, z: -0.63372463, w: 0.07958229}
        tangentMode: 0
        weightedMode: 0
        inWeight: {x: 0.33333334, y: 0.33333334, z: 0.33333334, w: 0.33333334}
        outWeight: {x: 0.33333334, y: 0.33333334, z: 0.33333334, w: 0.33333334}
      - serializedVersion: 3
        time: 1.4583334
        value: {x: 0.007494759, y: -0.0052336105, z: -0.17237955, w: 0.9849882}
        inSlope: {x: -0.11313422, y: 0.026442476, z: -0.77885115, w: -0.13491166}
        outSlope: {x: -0.11313422, y: 0.026442476, z: -0.77885115, w: -0.13491166}
        tangentMode: 0
        weightedMode: 0
        inWeight: {x: 0.33333334, y: 0.33333334, z: 0.33333334, w: 0.33333334}
        outWeight: {x: 0.33333334, y: 0.33333334, z: 0.33333334, w: 0.33333334}
      - serializedVersion: 3
        time: 2.0416667
        value: {x: -0.035933495, y: 0.0050821914, z: -0.46070826, w: 0.88680935}
        inSlope: {x: -0.035867594, y: 0.008659881, z: -0.22912459, w: -0.12033583}
        outSlope: {x: -0.035867594, y: 0.008659881, z: -0.22912459, w: -0.12033583}
        tangentMode: 0
        weightedMode: 0
        inWeight: {x: 0.33333334, y: 0.33333334, z: 0.33333334, w: 0.33333334}
        outWeight: {x: 0.33333334, y: 0.33333334, z: 0.33333334, w: 0.33333334}
      - serializedVersion: 3
        time: 2.4583335
        value: {x: -0.042717777, y: 0.0066913953, z: -0.50364614, w: 0.8628273}
        inSlope: {x: -0.00040832083, y: -0.000701631, z: -0.000021457632, w: -0.000027179667}
        outSlope: {x: -0.00040832083, y: -0.000701631, z: -0.000021457632, w: -0.000027179667}
        tangentMode: 0
        weightedMode: 0
        inWeight: {x: 0.33333334, y: 0.33333334, z: 0.33333334, w: 0.33333334}
        outWeight: {x: 0.33333334, y: 0.33333334, z: 0.33333334, w: 0.33333334}
      m_PreInfinity: 2
      m_PostInfinity: 2
      m_RotationOrder: 4
    path: Armature/Bone/Bone.002/Bone.006/Bone.007
  - curve:
      serializedVersion: 2
      m_Curve:
      - serializedVersion: 3
        time: 0
        value: {x: -0.029907856, y: -0.0031581037, z: -0.14009027, w: 0.9896819}
        inSlope: {x: 0.014137074, y: -0.0008154195, z: 0.09180808, w: 0.013235092}
        outSlope: {x: 0.014137074, y: -0.0008154195, z: 0.09180808, w: 0.013235092}
        tangentMode: 0
        weightedMode: 0
        inWeight: {x: 0.33333334, y: 0.33333334, z: 0.33333334, w: 0.33333334}
        outWeight: {x: 0.33333334, y: 0.33333334, z: 0.33333334, w: 0.33333334}
      - serializedVersion: 3
        time: 0.2916667
        value: {x: -0.00638439, y: -0.004458441, z: 0.012046155, w: 0.9998971}
        inSlope: {x: 0.13867652, y: -0.0073238043, z: 0.8930894, w: -0.011051422}
        outSlope: {x: 0.13867652, y: -0.0073238043, z: 0.8930894, w: -0.011051422}
        tangentMode: 0
        weightedMode: 0
        inWeight: {x: 0.33333334, y: 0.33333334, z: 0.33333334, w: 0.33333334}
        outWeight: {x: 0.33333334, y: 0.33333334, z: 0.33333334, w: 0.33333334}
      - serializedVersion: 3
        time: 0.5416667
        value: {x: 0.029702947, y: -0.006232484, z: 0.24299084, w: 0.9695537}
        inSlope: {x: 0.12539728, y: -0.0057000825, z: 0.7973443, w: -0.20222846}
        outSlope: {x: 0.12539728, y: -0.0057000825, z: 0.7973443, w: -0.20222846}
        tangentMode: 0
        weightedMode: 0
        inWeight: {x: 0.33333334, y: 0.33333334, z: 0.33333334, w: 0.33333334}
        outWeight: {x: 0.33333334, y: 0.33333334, z: 0.33333334, w: 0.33333334}
      - serializedVersion: 3
        time: 0.8333334
        value: {x: 0.046559867, y: -0.0069664256, z: 0.3498181, w: 0.93563396}
        inSlope: {x: -0.03160793, y: 0.0013202454, z: -0.19968878, w: 0.07523851}
        outSlope: {x: -0.03160793, y: 0.0013202454, z: -0.19968878, w: 0.07523851}
        tangentMode: 0
        weightedMode: 0
        inWeight: {x: 0.33333334, y: 0.33333334, z: 0.33333334, w: 0.33333334}
        outWeight: {x: 0.33333334, y: 0.33333334, z: 0.33333334, w: 0.33333334}
      - serializedVersion: 3
        time: 1.1666667
        value: {x: 0.0028292008, y: -0.004936748, z: 0.071290836, w: 0.9974394}
        inSlope: {x: -0.19843078, y: 0.010120295, z: -1.2739289, w: 0.090699345}
        outSlope: {x: -0.19843078, y: 0.010120295, z: -1.2739289, w: 0.090699345}
        tangentMode: 0
        weightedMode: 0
        inWeight: {x: 0.33333334, y: 0.33333334, z: 0.33333334, w: 0.33333334}
        outWeight: {x: 0.33333334, y: 0.33333334, z: 0.33333334, w: 0.33333334}
      - serializedVersion: 3
        time: 1.4166667
        value: {x: -0.04288803, y: -0.0023899719, z: -0.22459957, w: 0.97350395}
        inSlope: {x: -0.13663805, y: 0.008270609, z: -0.8916521, w: -0.20886745}
        outSlope: {x: -0.13663805, y: 0.008270609, z: -0.8916521, w: -0.20886745}
        tangentMode: 0
        weightedMode: 0
        inWeight: {x: 0.33333334, y: 0.33333334, z: 0.33333334, w: 0.33333334}
        outWeight: {x: 0.33333334, y: 0.33333334, z: 0.33333334, w: 0.33333334}
      - serializedVersion: 3
        time: 1.625
        value: {x: -0.05783299, y: -0.0014573414, z: -0.32243553, w: 0.944822}
        inSlope: {x: -0.0056588002, y: 0.00036301388, z: -0.03715581, w: -0.012918255}
        outSlope: {x: -0.0056588002, y: 0.00036301388, z: -0.03715581, w: -0.012918255}
        tangentMode: 0
        weightedMode: 0
        inWeight: {x: 0.33333334, y: 0.33333334, z: 0.33333334, w: 0.33333334}
        outWeight: {x: 0.33333334, y: 0.33333334, z: 0.33333334, w: 0.33333334}
      - serializedVersion: 3
        time: 2.1666667
        value: {x: -0.051329035, y: -0.0018698636, z: -0.27978417, w: 0.958688}
        inSlope: {x: 0.01415846, y: -0.00088671147, z: 0.092722, w: 0.027830549}
        outSlope: {x: 0.01415846, y: -0.00088671147, z: 0.092722, w: 0.027830549}
        tangentMode: 0
        weightedMode: 0
        inWeight: {x: 0.33333334, y: 0.33333334, z: 0.33333334, w: 0.33333334}
        outWeight: {x: 0.33333334, y: 0.33333334, z: 0.33333334, w: 0.33333334}
      - serializedVersion: 3
        time: 2.4583335
        value: {x: -0.048938386, y: -0.001986778, z: -0.26419088, w: 0.963226}
        inSlope: {x: 0.0002065297, y: 0.00075765554, z: 0.000031471194, w: 0.000021457632}
        outSlope: {x: 0.0002065297, y: 0.00075765554, z: 0.000031471194, w: 0.000021457632}
        tangentMode: 0
        weightedMode: 0
        inWeight: {x: 0.33333334, y: 0.33333334, z: 0.33333334, w: 0.33333334}
        outWeight: {x: 0.33333334, y: 0.33333334, z: 0.33333334, w: 0.33333334}
      m_PreInfinity: 2
      m_PostInfinity: 2
      m_RotationOrder: 4
    path: Armature/Bone/Bone.002/Bone.006/Bone.007/Bone.008
  m_CompressedRotationCurves: []
  m_EulerCurves: []
  m_PositionCurves: []
  m_ScaleCurves: []
  m_FloatCurves: []
  m_PPtrCurves: []
  m_SampleRate: 24
  m_WrapMode: 0
  m_Bounds:
    m_Center: {x: 0, y: 0, z: 0}
    m_Extent: {x: 0, y: 0, z: 0}
  m_ClipBindingConstant:
    genericBindings:
    - serializedVersion: 2
      path: 933082389
      attribute: 2
      script: {fileID: 0}
      typeID: 4
      customType: 0
      isPPtrCurve: 0
    - serializedVersion: 2
      path: 3145610904
      attribute: 2
      script: {fileID: 0}
      typeID: 4
      customType: 0
      isPPtrCurve: 0
    - serializedVersion: 2
      path: 3723299590
      attribute: 2
      script: {fileID: 0}
      typeID: 4
      customType: 0
      isPPtrCurve: 0
    - serializedVersion: 2
      path: 2898328217
      attribute: 2
      script: {fileID: 0}
      typeID: 4
      customType: 0
      isPPtrCurve: 0
    - serializedVersion: 2
      path: 1728588495
      attribute: 2
      script: {fileID: 0}
      typeID: 4
      customType: 0
      isPPtrCurve: 0
    - serializedVersion: 2
      path: 1950303781
      attribute: 2
      script: {fileID: 0}
      typeID: 4
      customType: 0
      isPPtrCurve: 0
    pptrCurveMapping: []
  m_AnimationClipSettings:
    serializedVersion: 2
    m_AdditiveReferencePoseClip: {fileID: 0}
    m_AdditiveReferencePoseTime: 0
    m_StartTime: 0
    m_StopTime: 2.4583335
    m_OrientationOffsetY: 0
    m_Level: 0
    m_CycleOffset: 0
    m_HasAdditiveReferencePose: 0
    m_LoopTime: 1
    m_LoopBlend: 0
    m_LoopBlendOrientation: 0
    m_LoopBlendPositionY: 0
    m_LoopBlendPositionXZ: 0
    m_KeepOriginalOrientation: 0
    m_KeepOriginalPositionY: 1
    m_KeepOriginalPositionXZ: 0
    m_HeightFromFeet: 0
    m_Mirror: 0
  m_EditorCurves: []
  m_EulerEditorCurves: []
  m_HasGenericRootTransform: 0
  m_HasMotionFloatCurves: 0
  m_Events: []
